54466472
187079891
135527144
12478199
195409401
7459124
174249109
33621926
152492802
104993334
74714558
169184444
159488269
186591823
103166727
204333149
96628816
120348033
74228163
91466510
221906018
15425334
120701279
48367160
118738423
44581228
194220037
145369368
3946529
67520048
177396061
130250387
206639789
20725752
140159889
122925996
93592804
216266967
4654472
153037375
8595092
23274126
45974033
124323313
66647050
216212475
174873165
200649707
172329751
36342879
56799374
151749700
166370625
211354968
53236512
172675231
199805241
15408633
202988908
185593872
44688193
221670503
74809706
110455165
5783143
132946817
158129505
117861995
31517652
131493525
126143331
220783918
46225825
38544461
7654967
217032947
137482767
76722143
101113722
158030038
77439541
139854613
206874525
47867135
162737555
142117812
203906306
213394206
206118988
44689267
56118505
13234452
81033605
105618208
154447798
53394910
154819024
153865744
17361322
83393774
