$ time ./interval_std < data/interval20.in
553495618

real    0m1.847s
user    0m0.000s
sys     0m0.000s

$ time ./wys < data/interval20.in
553495618

real    0m1.608s
user    0m0.000s
sys     0m0.000s
