I
I
I
I
I
I
I
I
I
I
I
I
I
I
I
I
< 1 350
< 2 350
< 3 350
< 4 350
< 5 350
< 6 350
< 7 350
< 8 350
< 9 350
< 10 350
< 11 350
< 12 350
< 13 350
< 14 350
< 15 350
< 16 350
+ 17 18
- 18
+ 17 34
S 35
C 36 -1
> 35 450
< 37 100
+ 38 39
S 40
- 36
C 42 1
< 42 100
+ 38 44
S 45
- 46
+ 41 47
+ 48 43
< 49 102
C 50 -2535301200456458802993406410752
- 51
+ 33 52
> 53 1
+ 33 51
> 55 1
+ 56 19
- 19
+ 56 58
S 59
C 60 -1
> 59 450
< 61 100
+ 62 63
S 64
- 60
C 66 1
< 66 100
+ 62 68
S 69
- 70
+ 65 71
+ 72 67
< 73 102
C 74 -2535301200456458802993406410752
- 75
+ 57 76
> 77 1
+ 57 75
> 79 1
+ 80 20
- 20
+ 80 82
S 83
C 84 -1
> 83 450
< 85 100
+ 86 87
S 88
- 84
C 90 1
< 90 100
+ 86 92
S 93
- 94
+ 89 95
+ 96 91
< 97 102
C 98 -2535301200456458802993406410752
- 99
+ 81 100
> 101 1
+ 81 99
> 103 1
+ 104 21
- 21
+ 104 106
S 107
C 108 -1
> 107 450
< 109 100
+ 110 111
S 112
- 108
C 114 1
< 114 100
+ 110 116
S 117
- 118
+ 113 119
+ 120 115
< 121 102
C 122 -2535301200456458802993406410752
- 123
+ 105 124
> 125 1
+ 105 123
> 127 1
+ 128 22
- 22
+ 128 130
S 131
C 132 -1
> 131 450
< 133 100
+ 134 135
S 136
- 132
C 138 1
< 138 100
+ 134 140
S 141
- 142
+ 137 143
+ 144 139
< 145 102
C 146 -2535301200456458802993406410752
- 147
+ 129 148
> 149 1
+ 129 147
> 151 1
+ 152 23
- 23
+ 152 154
S 155
C 156 -1
> 155 450
< 157 100
+ 158 159
S 160
- 156
C 162 1
< 162 100
+ 158 164
S 165
- 166
+ 161 167
+ 168 163
< 169 102
C 170 -2535301200456458802993406410752
- 171
+ 153 172
> 173 1
+ 153 171
> 175 1
+ 176 24
- 24
+ 176 178
S 179
C 180 -1
> 179 450
< 181 100
+ 182 183
S 184
- 180
C 186 1
< 186 100
+ 182 188
S 189
- 190
+ 185 191
+ 192 187
< 193 102
C 194 -2535301200456458802993406410752
- 195
+ 177 196
> 197 1
+ 177 195
> 199 1
+ 200 25
- 25
+ 200 202
S 203
C 204 -1
> 203 450
< 205 100
+ 206 207
S 208
- 204
C 210 1
< 210 100
+ 206 212
S 213
- 214
+ 209 215
+ 216 211
< 217 102
C 218 -2535301200456458802993406410752
- 219
+ 201 220
> 221 1
+ 201 219
> 223 1
+ 224 26
- 26
+ 224 226
S 227
C 228 -1
> 227 450
< 229 100
+ 230 231
S 232
- 228
C 234 1
< 234 100
+ 230 236
S 237
- 238
+ 233 239
+ 240 235
< 241 102
C 242 -2535301200456458802993406410752
- 243
+ 225 244
> 245 1
+ 225 243
> 247 1
+ 248 27
- 27
+ 248 250
S 251
C 252 -1
> 251 450
< 253 100
+ 254 255
S 256
- 252
C 258 1
< 258 100
+ 254 260
S 261
- 262
+ 257 263
+ 264 259
< 265 102
C 266 -2535301200456458802993406410752
- 267
+ 249 268
> 269 1
+ 249 267
> 271 1
+ 272 28
- 28
+ 272 274
S 275
C 276 -1
> 275 450
< 277 100
+ 278 279
S 280
- 276
C 282 1
< 282 100
+ 278 284
S 285
- 286
+ 281 287
+ 288 283
< 289 102
C 290 -2535301200456458802993406410752
- 291
+ 273 292
> 293 1
+ 273 291
> 295 1
+ 296 29
- 29
+ 296 298
S 299
C 300 -1
> 299 450
< 301 100
+ 302 303
S 304
- 300
C 306 1
< 306 100
+ 302 308
S 309
- 310
+ 305 311
+ 312 307
< 313 102
C 314 -2535301200456458802993406410752
- 315
+ 297 316
> 317 1
+ 297 315
> 319 1
+ 320 30
- 30
+ 320 322
S 323
C 324 -1
> 323 450
< 325 100
+ 326 327
S 328
- 324
C 330 1
< 330 100
+ 326 332
S 333
- 334
+ 329 335
+ 336 331
< 337 102
C 338 -2535301200456458802993406410752
- 339
+ 321 340
> 341 1
+ 321 339
> 343 1
+ 344 31
- 31
+ 344 346
S 347
C 348 -1
> 347 450
< 349 100
+ 350 351
S 352
- 348
C 354 1
< 354 100
+ 350 356
S 357
- 358
+ 353 359
+ 360 355
< 361 102
C 362 -2535301200456458802993406410752
- 363
+ 345 364
> 365 1
+ 345 363
> 367 1
+ 368 32
- 32
+ 368 370
S 371
C 372 -1
> 371 450
< 373 100
+ 374 375
S 376
- 372
C 378 1
< 378 100
+ 374 380
S 381
- 382
+ 377 383
+ 384 379
< 385 102
C 386 -2535301200456458802993406410752
- 387
+ 369 388
> 389 1
+ 369 387
> 391 1
+ 54 78
- 78
+ 54 394
S 395
C 396 -1
> 395 450
< 397 100
+ 398 399
S 400
- 396
C 402 1
< 402 100
+ 398 404
S 405
- 406
+ 401 407
+ 408 403
< 409 102
C 410 -2535301200456458802993406410752
- 411
+ 393 412
> 413 1
+ 393 411
> 415 1
+ 416 102
- 102
+ 416 418
S 419
C 420 -1
> 419 450
< 421 100
+ 422 423
S 424
- 420
C 426 1
< 426 100
+ 422 428
S 429
- 430
+ 425 431
+ 432 427
< 433 102
C 434 -2535301200456458802993406410752
- 435
+ 417 436
> 437 1
+ 417 435
> 439 1
+ 440 126
- 126
+ 440 442
S 443
C 444 -1
> 443 450
< 445 100
+ 446 447
S 448
- 444
C 450 1
< 450 100
+ 446 452
S 453
- 454
+ 449 455
+ 456 451
< 457 102
C 458 -2535301200456458802993406410752
- 459
+ 441 460
> 461 1
+ 441 459
> 463 1
+ 464 150
- 150
+ 464 466
S 467
C 468 -1
> 467 450
< 469 100
+ 470 471
S 472
- 468
C 474 1
< 474 100
+ 470 476
S 477
- 478
+ 473 479
+ 480 475
< 481 102
C 482 -2535301200456458802993406410752
- 483
+ 465 484
> 485 1
+ 465 483
> 487 1
+ 488 174
- 174
+ 488 490
S 491
C 492 -1
> 491 450
< 493 100
+ 494 495
S 496
- 492
C 498 1
< 498 100
+ 494 500
S 501
- 502
+ 497 503
+ 504 499
< 505 102
C 506 -2535301200456458802993406410752
- 507
+ 489 508
> 509 1
+ 489 507
> 511 1
+ 512 198
- 198
+ 512 514
S 515
C 516 -1
> 515 450
< 517 100
+ 518 519
S 520
- 516
C 522 1
< 522 100
+ 518 524
S 525
- 526
+ 521 527
+ 528 523
< 529 102
C 530 -2535301200456458802993406410752
- 531
+ 513 532
> 533 1
+ 513 531
> 535 1
+ 536 222
- 222
+ 536 538
S 539
C 540 -1
> 539 450
< 541 100
+ 542 543
S 544
- 540
C 546 1
< 546 100
+ 542 548
S 549
- 550
+ 545 551
+ 552 547
< 553 102
C 554 -2535301200456458802993406410752
- 555
+ 537 556
> 557 1
+ 537 555
> 559 1
+ 560 246
- 246
+ 560 562
S 563
C 564 -1
> 563 450
< 565 100
+ 566 567
S 568
- 564
C 570 1
< 570 100
+ 566 572
S 573
- 574
+ 569 575
+ 576 571
< 577 102
C 578 -2535301200456458802993406410752
- 579
+ 561 580
> 581 1
+ 561 579
> 583 1
+ 584 270
- 270
+ 584 586
S 587
C 588 -1
> 587 450
< 589 100
+ 590 591
S 592
- 588
C 594 1
< 594 100
+ 590 596
S 597
- 598
+ 593 599
+ 600 595
< 601 102
C 602 -2535301200456458802993406410752
- 603
+ 585 604
> 605 1
+ 585 603
> 607 1
+ 608 294
- 294
+ 608 610
S 611
C 612 -1
> 611 450
< 613 100
+ 614 615
S 616
- 612
C 618 1
< 618 100
+ 614 620
S 621
- 622
+ 617 623
+ 624 619
< 625 102
C 626 -2535301200456458802993406410752
- 627
+ 609 628
> 629 1
+ 609 627
> 631 1
+ 632 318
- 318
+ 632 634
S 635
C 636 -1
> 635 450
< 637 100
+ 638 639
S 640
- 636
C 642 1
< 642 100
+ 638 644
S 645
- 646
+ 641 647
+ 648 643
< 649 102
C 650 -2535301200456458802993406410752
- 651
+ 633 652
> 653 1
+ 633 651
> 655 1
+ 656 342
- 342
+ 656 658
S 659
C 660 -1
> 659 450
< 661 100
+ 662 663
S 664
- 660
C 666 1
< 666 100
+ 662 668
S 669
- 670
+ 665 671
+ 672 667
< 673 102
C 674 -2535301200456458802993406410752
- 675
+ 657 676
> 677 1
+ 657 675
> 679 1
+ 680 366
- 366
+ 680 682
S 683
C 684 -1
> 683 450
< 685 100
+ 686 687
S 688
- 684
C 690 1
< 690 100
+ 686 692
S 693
- 694
+ 689 695
+ 696 691
< 697 102
C 698 -2535301200456458802993406410752
- 699
+ 681 700
> 701 1
+ 681 699
> 703 1
+ 704 390
- 390
+ 704 706
S 707
C 708 -1
> 707 450
< 709 100
+ 710 711
S 712
- 708
C 714 1
< 714 100
+ 710 716
S 717
- 718
+ 713 719
+ 720 715
< 721 102
C 722 -2535301200456458802993406410752
- 723
+ 705 724
> 725 1
+ 705 723
> 727 1
+ 414 438
- 438
+ 414 730
S 731
C 732 -1
> 731 450
< 733 100
+ 734 735
S 736
- 732
C 738 1
< 738 100
+ 734 740
S 741
- 742
+ 737 743
+ 744 739
< 745 102
C 746 -2535301200456458802993406410752
- 747
+ 729 748
> 749 1
+ 729 747
> 751 1
+ 752 462
- 462
+ 752 754
S 755
C 756 -1
> 755 450
< 757 100
+ 758 759
S 760
- 756
C 762 1
< 762 100
+ 758 764
S 765
- 766
+ 761 767
+ 768 763
< 769 102
C 770 -2535301200456458802993406410752
- 771
+ 753 772
> 773 1
+ 753 771
> 775 1
+ 776 486
- 486
+ 776 778
S 779
C 780 -1
> 779 450
< 781 100
+ 782 783
S 784
- 780
C 786 1
< 786 100
+ 782 788
S 789
- 790
+ 785 791
+ 792 787
< 793 102
C 794 -2535301200456458802993406410752
- 795
+ 777 796
> 797 1
+ 777 795
> 799 1
+ 800 510
- 510
+ 800 802
S 803
C 804 -1
> 803 450
< 805 100
+ 806 807
S 808
- 804
C 810 1
< 810 100
+ 806 812
S 813
- 814
+ 809 815
+ 816 811
< 817 102
C 818 -2535301200456458802993406410752
- 819
+ 801 820
> 821 1
+ 801 819
> 823 1
+ 824 534
- 534
+ 824 826
S 827
C 828 -1
> 827 450
< 829 100
+ 830 831
S 832
- 828
C 834 1
< 834 100
+ 830 836
S 837
- 838
+ 833 839
+ 840 835
< 841 102
C 842 -2535301200456458802993406410752
- 843
+ 825 844
> 845 1
+ 825 843
> 847 1
+ 848 558
- 558
+ 848 850
S 851
C 852 -1
> 851 450
< 853 100
+ 854 855
S 856
- 852
C 858 1
< 858 100
+ 854 860
S 861
- 862
+ 857 863
+ 864 859
< 865 102
C 866 -2535301200456458802993406410752
- 867
+ 849 868
> 869 1
+ 849 867
> 871 1
+ 872 582
- 582
+ 872 874
S 875
C 876 -1
> 875 450
< 877 100
+ 878 879
S 880
- 876
C 882 1
< 882 100
+ 878 884
S 885
- 886
+ 881 887
+ 888 883
< 889 102
C 890 -2535301200456458802993406410752
- 891
+ 873 892
> 893 1
+ 873 891
> 895 1
+ 896 606
- 606
+ 896 898
S 899
C 900 -1
> 899 450
< 901 100
+ 902 903
S 904
- 900
C 906 1
< 906 100
+ 902 908
S 909
- 910
+ 905 911
+ 912 907
< 913 102
C 914 -2535301200456458802993406410752
- 915
+ 897 916
> 917 1
+ 897 915
> 919 1
+ 920 630
- 630
+ 920 922
S 923
C 924 -1
> 923 450
< 925 100
+ 926 927
S 928
- 924
C 930 1
< 930 100
+ 926 932
S 933
- 934
+ 929 935
+ 936 931
< 937 102
C 938 -2535301200456458802993406410752
- 939
+ 921 940
> 941 1
+ 921 939
> 943 1
+ 944 654
- 654
+ 944 946
S 947
C 948 -1
> 947 450
< 949 100
+ 950 951
S 952
- 948
C 954 1
< 954 100
+ 950 956
S 957
- 958
+ 953 959
+ 960 955
< 961 102
C 962 -2535301200456458802993406410752
- 963
+ 945 964
> 965 1
+ 945 963
> 967 1
+ 968 678
- 678
+ 968 970
S 971
C 972 -1
> 971 450
< 973 100
+ 974 975
S 976
- 972
C 978 1
< 978 100
+ 974 980
S 981
- 982
+ 977 983
+ 984 979
< 985 102
C 986 -2535301200456458802993406410752
- 987
+ 969 988
> 989 1
+ 969 987
> 991 1
+ 992 702
- 702
+ 992 994
S 995
C 996 -1
> 995 450
< 997 100
+ 998 999
S 1000
- 996
C 1002 1
< 1002 100
+ 998 1004
S 1005
- 1006
+ 1001 1007
+ 1008 1003
< 1009 102
C 1010 -2535301200456458802993406410752
- 1011
+ 993 1012
> 1013 1
+ 993 1011
> 1015 1
+ 1016 726
- 726
+ 1016 1018
S 1019
C 1020 -1
> 1019 450
< 1021 100
+ 1022 1023
S 1024
- 1020
C 1026 1
< 1026 100
+ 1022 1028
S 1029
- 1030
+ 1025 1031
+ 1032 1027
< 1033 102
C 1034 -2535301200456458802993406410752
- 1035
+ 1017 1036
> 1037 1
+ 1017 1035
> 1039 1
+ 750 774
- 774
+ 750 1042
S 1043
C 1044 -1
> 1043 450
< 1045 100
+ 1046 1047
S 1048
- 1044
C 1050 1
< 1050 100
+ 1046 1052
S 1053
- 1054
+ 1049 1055
+ 1056 1051
< 1057 102
C 1058 -2535301200456458802993406410752
- 1059
+ 1041 1060
> 1061 1
+ 1041 1059
> 1063 1
+ 1064 798
- 798
+ 1064 1066
S 1067
C 1068 -1
> 1067 450
< 1069 100
+ 1070 1071
S 1072
- 1068
C 1074 1
< 1074 100
+ 1070 1076
S 1077
- 1078
+ 1073 1079
+ 1080 1075
< 1081 102
C 1082 -2535301200456458802993406410752
- 1083
+ 1065 1084
> 1085 1
+ 1065 1083
> 1087 1
+ 1088 822
- 822
+ 1088 1090
S 1091
C 1092 -1
> 1091 450
< 1093 100
+ 1094 1095
S 1096
- 1092
C 1098 1
< 1098 100
+ 1094 1100
S 1101
- 1102
+ 1097 1103
+ 1104 1099
< 1105 102
C 1106 -2535301200456458802993406410752
- 1107
+ 1089 1108
> 1109 1
+ 1089 1107
> 1111 1
+ 1112 846
- 846
+ 1112 1114
S 1115
C 1116 -1
> 1115 450
< 1117 100
+ 1118 1119
S 1120
- 1116
C 1122 1
< 1122 100
+ 1118 1124
S 1125
- 1126
+ 1121 1127
+ 1128 1123
< 1129 102
C 1130 -2535301200456458802993406410752
- 1131
+ 1113 1132
> 1133 1
+ 1113 1131
> 1135 1
+ 1136 870
- 870
+ 1136 1138
S 1139
C 1140 -1
> 1139 450
< 1141 100
+ 1142 1143
S 1144
- 1140
C 1146 1
< 1146 100
+ 1142 1148
S 1149
- 1150
+ 1145 1151
+ 1152 1147
< 1153 102
C 1154 -2535301200456458802993406410752
- 1155
+ 1137 1156
> 1157 1
+ 1137 1155
> 1159 1
+ 1160 894
- 894
+ 1160 1162
S 1163
C 1164 -1
> 1163 450
< 1165 100
+ 1166 1167
S 1168
- 1164
C 1170 1
< 1170 100
+ 1166 1172
S 1173
- 1174
+ 1169 1175
+ 1176 1171
< 1177 102
C 1178 -2535301200456458802993406410752
- 1179
+ 1161 1180
> 1181 1
+ 1161 1179
> 1183 1
+ 1184 918
- 918
+ 1184 1186
S 1187
C 1188 -1
> 1187 450
< 1189 100
+ 1190 1191
S 1192
- 1188
C 1194 1
< 1194 100
+ 1190 1196
S 1197
- 1198
+ 1193 1199
+ 1200 1195
< 1201 102
C 1202 -2535301200456458802993406410752
- 1203
+ 1185 1204
> 1205 1
+ 1185 1203
> 1207 1
+ 1208 942
- 942
+ 1208 1210
S 1211
C 1212 -1
> 1211 450
< 1213 100
+ 1214 1215
S 1216
- 1212
C 1218 1
< 1218 100
+ 1214 1220
S 1221
- 1222
+ 1217 1223
+ 1224 1219
< 1225 102
C 1226 -2535301200456458802993406410752
- 1227
+ 1209 1228
> 1229 1
+ 1209 1227
> 1231 1
+ 1232 966
- 966
+ 1232 1234
S 1235
C 1236 -1
> 1235 450
< 1237 100
+ 1238 1239
S 1240
- 1236
C 1242 1
< 1242 100
+ 1238 1244
S 1245
- 1246
+ 1241 1247
+ 1248 1243
< 1249 102
C 1250 -2535301200456458802993406410752
- 1251
+ 1233 1252
> 1253 1
+ 1233 1251
> 1255 1
+ 1256 990
- 990
+ 1256 1258
S 1259
C 1260 -1
> 1259 450
< 1261 100
+ 1262 1263
S 1264
- 1260
C 1266 1
< 1266 100
+ 1262 1268
S 1269
- 1270
+ 1265 1271
+ 1272 1267
< 1273 102
C 1274 -2535301200456458802993406410752
- 1275
+ 1257 1276
> 1277 1
+ 1257 1275
> 1279 1
+ 1280 1014
- 1014
+ 1280 1282
S 1283
C 1284 -1
> 1283 450
< 1285 100
+ 1286 1287
S 1288
- 1284
C 1290 1
< 1290 100
+ 1286 1292
S 1293
- 1294
+ 1289 1295
+ 1296 1291
< 1297 102
C 1298 -2535301200456458802993406410752
- 1299
+ 1281 1300
> 1301 1
+ 1281 1299
> 1303 1
+ 1304 1038
- 1038
+ 1304 1306
S 1307
C 1308 -1
> 1307 450
< 1309 100
+ 1310 1311
S 1312
- 1308
C 1314 1
< 1314 100
+ 1310 1316
S 1317
- 1318
+ 1313 1319
+ 1320 1315
< 1321 102
C 1322 -2535301200456458802993406410752
- 1323
+ 1305 1324
> 1325 1
+ 1305 1323
> 1327 1
+ 1062 1086
- 1086
+ 1062 1330
S 1331
C 1332 -1
> 1331 450
< 1333 100
+ 1334 1335
S 1336
- 1332
C 1338 1
< 1338 100
+ 1334 1340
S 1341
- 1342
+ 1337 1343
+ 1344 1339
< 1345 102
C 1346 -2535301200456458802993406410752
- 1347
+ 1329 1348
> 1349 1
+ 1329 1347
> 1351 1
+ 1352 1110
- 1110
+ 1352 1354
S 1355
C 1356 -1
> 1355 450
< 1357 100
+ 1358 1359
S 1360
- 1356
C 1362 1
< 1362 100
+ 1358 1364
S 1365
- 1366
+ 1361 1367
+ 1368 1363
< 1369 102
C 1370 -2535301200456458802993406410752
- 1371
+ 1353 1372
> 1373 1
+ 1353 1371
> 1375 1
+ 1376 1134
- 1134
+ 1376 1378
S 1379
C 1380 -1
> 1379 450
< 1381 100
+ 1382 1383
S 1384
- 1380
C 1386 1
< 1386 100
+ 1382 1388
S 1389
- 1390
+ 1385 1391
+ 1392 1387
< 1393 102
C 1394 -2535301200456458802993406410752
- 1395
+ 1377 1396
> 1397 1
+ 1377 1395
> 1399 1
+ 1400 1158
- 1158
+ 1400 1402
S 1403
C 1404 -1
> 1403 450
< 1405 100
+ 1406 1407
S 1408
- 1404
C 1410 1
< 1410 100
+ 1406 1412
S 1413
- 1414
+ 1409 1415
+ 1416 1411
< 1417 102
C 1418 -2535301200456458802993406410752
- 1419
+ 1401 1420
> 1421 1
+ 1401 1419
> 1423 1
+ 1424 1182
- 1182
+ 1424 1426
S 1427
C 1428 -1
> 1427 450
< 1429 100
+ 1430 1431
S 1432
- 1428
C 1434 1
< 1434 100
+ 1430 1436
S 1437
- 1438
+ 1433 1439
+ 1440 1435
< 1441 102
C 1442 -2535301200456458802993406410752
- 1443
+ 1425 1444
> 1445 1
+ 1425 1443
> 1447 1
+ 1448 1206
- 1206
+ 1448 1450
S 1451
C 1452 -1
> 1451 450
< 1453 100
+ 1454 1455
S 1456
- 1452
C 1458 1
< 1458 100
+ 1454 1460
S 1461
- 1462
+ 1457 1463
+ 1464 1459
< 1465 102
C 1466 -2535301200456458802993406410752
- 1467
+ 1449 1468
> 1469 1
+ 1449 1467
> 1471 1
+ 1472 1230
- 1230
+ 1472 1474
S 1475
C 1476 -1
> 1475 450
< 1477 100
+ 1478 1479
S 1480
- 1476
C 1482 1
< 1482 100
+ 1478 1484
S 1485
- 1486
+ 1481 1487
+ 1488 1483
< 1489 102
C 1490 -2535301200456458802993406410752
- 1491
+ 1473 1492
> 1493 1
+ 1473 1491
> 1495 1
+ 1496 1254
- 1254
+ 1496 1498
S 1499
C 1500 -1
> 1499 450
< 1501 100
+ 1502 1503
S 1504
- 1500
C 1506 1
< 1506 100
+ 1502 1508
S 1509
- 1510
+ 1505 1511
+ 1512 1507
< 1513 102
C 1514 -2535301200456458802993406410752
- 1515
+ 1497 1516
> 1517 1
+ 1497 1515
> 1519 1
+ 1520 1278
- 1278
+ 1520 1522
S 1523
C 1524 -1
> 1523 450
< 1525 100
+ 1526 1527
S 1528
- 1524
C 1530 1
< 1530 100
+ 1526 1532
S 1533
- 1534
+ 1529 1535
+ 1536 1531
< 1537 102
C 1538 -2535301200456458802993406410752
- 1539
+ 1521 1540
> 1541 1
+ 1521 1539
> 1543 1
+ 1544 1302
- 1302
+ 1544 1546
S 1547
C 1548 -1
> 1547 450
< 1549 100
+ 1550 1551
S 1552
- 1548
C 1554 1
< 1554 100
+ 1550 1556
S 1557
- 1558
+ 1553 1559
+ 1560 1555
< 1561 102
C 1562 -2535301200456458802993406410752
- 1563
+ 1545 1564
> 1565 1
+ 1545 1563
> 1567 1
+ 1568 1326
- 1326
+ 1568 1570
S 1571
C 1572 -1
> 1571 450
< 1573 100
+ 1574 1575
S 1576
- 1572
C 1578 1
< 1578 100
+ 1574 1580
S 1581
- 1582
+ 1577 1583
+ 1584 1579
< 1585 102
C 1586 -2535301200456458802993406410752
- 1587
+ 1569 1588
> 1589 1
+ 1569 1587
> 1591 1
+ 1350 1374
- 1374
+ 1350 1594
S 1595
C 1596 -1
> 1595 450
< 1597 100
+ 1598 1599
S 1600
- 1596
C 1602 1
< 1602 100
+ 1598 1604
S 1605
- 1606
+ 1601 1607
+ 1608 1603
< 1609 102
C 1610 -2535301200456458802993406410752
- 1611
+ 1593 1612
> 1613 1
+ 1593 1611
> 1615 1
+ 1616 1398
- 1398
+ 1616 1618
S 1619
C 1620 -1
> 1619 450
< 1621 100
+ 1622 1623
S 1624
- 1620
C 1626 1
< 1626 100
+ 1622 1628
S 1629
- 1630
+ 1625 1631
+ 1632 1627
< 1633 102
C 1634 -2535301200456458802993406410752
- 1635
+ 1617 1636
> 1637 1
+ 1617 1635
> 1639 1
+ 1640 1422
- 1422
+ 1640 1642
S 1643
C 1644 -1
> 1643 450
< 1645 100
+ 1646 1647
S 1648
- 1644
C 1650 1
< 1650 100
+ 1646 1652
S 1653
- 1654
+ 1649 1655
+ 1656 1651
< 1657 102
C 1658 -2535301200456458802993406410752
- 1659
+ 1641 1660
> 1661 1
+ 1641 1659
> 1663 1
+ 1664 1446
- 1446
+ 1664 1666
S 1667
C 1668 -1
> 1667 450
< 1669 100
+ 1670 1671
S 1672
- 1668
C 1674 1
< 1674 100
+ 1670 1676
S 1677
- 1678
+ 1673 1679
+ 1680 1675
< 1681 102
C 1682 -2535301200456458802993406410752
- 1683
+ 1665 1684
> 1685 1
+ 1665 1683
> 1687 1
+ 1688 1470
- 1470
+ 1688 1690
S 1691
C 1692 -1
> 1691 450
< 1693 100
+ 1694 1695
S 1696
- 1692
C 1698 1
< 1698 100
+ 1694 1700
S 1701
- 1702
+ 1697 1703
+ 1704 1699
< 1705 102
C 1706 -2535301200456458802993406410752
- 1707
+ 1689 1708
> 1709 1
+ 1689 1707
> 1711 1
+ 1712 1494
- 1494
+ 1712 1714
S 1715
C 1716 -1
> 1715 450
< 1717 100
+ 1718 1719
S 1720
- 1716
C 1722 1
< 1722 100
+ 1718 1724
S 1725
- 1726
+ 1721 1727
+ 1728 1723
< 1729 102
C 1730 -2535301200456458802993406410752
- 1731
+ 1713 1732
> 1733 1
+ 1713 1731
> 1735 1
+ 1736 1518
- 1518
+ 1736 1738
S 1739
C 1740 -1
> 1739 450
< 1741 100
+ 1742 1743
S 1744
- 1740
C 1746 1
< 1746 100
+ 1742 1748
S 1749
- 1750
+ 1745 1751
+ 1752 1747
< 1753 102
C 1754 -2535301200456458802993406410752
- 1755
+ 1737 1756
> 1757 1
+ 1737 1755
> 1759 1
+ 1760 1542
- 1542
+ 1760 1762
S 1763
C 1764 -1
> 1763 450
< 1765 100
+ 1766 1767
S 1768
- 1764
C 1770 1
< 1770 100
+ 1766 1772
S 1773
- 1774
+ 1769 1775
+ 1776 1771
< 1777 102
C 1778 -2535301200456458802993406410752
- 1779
+ 1761 1780
> 1781 1
+ 1761 1779
> 1783 1
+ 1784 1566
- 1566
+ 1784 1786
S 1787
C 1788 -1
> 1787 450
< 1789 100
+ 1790 1791
S 1792
- 1788
C 1794 1
< 1794 100
+ 1790 1796
S 1797
- 1798
+ 1793 1799
+ 1800 1795
< 1801 102
C 1802 -2535301200456458802993406410752
- 1803
+ 1785 1804
> 1805 1
+ 1785 1803
> 1807 1
+ 1808 1590
- 1590
+ 1808 1810
S 1811
C 1812 -1
> 1811 450
< 1813 100
+ 1814 1815
S 1816
- 1812
C 1818 1
< 1818 100
+ 1814 1820
S 1821
- 1822
+ 1817 1823
+ 1824 1819
< 1825 102
C 1826 -2535301200456458802993406410752
- 1827
+ 1809 1828
> 1829 1
+ 1809 1827
> 1831 1
+ 1614 1638
- 1638
+ 1614 1834
S 1835
C 1836 -1
> 1835 450
< 1837 100
+ 1838 1839
S 1840
- 1836
C 1842 1
< 1842 100
+ 1838 1844
S 1845
- 1846
+ 1841 1847
+ 1848 1843
< 1849 102
C 1850 -2535301200456458802993406410752
- 1851
+ 1833 1852
> 1853 1
+ 1833 1851
> 1855 1
+ 1856 1662
- 1662
+ 1856 1858
S 1859
C 1860 -1
> 1859 450
< 1861 100
+ 1862 1863
S 1864
- 1860
C 1866 1
< 1866 100
+ 1862 1868
S 1869
- 1870
+ 1865 1871
+ 1872 1867
< 1873 102
C 1874 -2535301200456458802993406410752
- 1875
+ 1857 1876
> 1877 1
+ 1857 1875
> 1879 1
+ 1880 1686
- 1686
+ 1880 1882
S 1883
C 1884 -1
> 1883 450
< 1885 100
+ 1886 1887
S 1888
- 1884
C 1890 1
< 1890 100
+ 1886 1892
S 1893
- 1894
+ 1889 1895
+ 1896 1891
< 1897 102
C 1898 -2535301200456458802993406410752
- 1899
+ 1881 1900
> 1901 1
+ 1881 1899
> 1903 1
+ 1904 1710
- 1710
+ 1904 1906
S 1907
C 1908 -1
> 1907 450
< 1909 100
+ 1910 1911
S 1912
- 1908
C 1914 1
< 1914 100
+ 1910 1916
S 1917
- 1918
+ 1913 1919
+ 1920 1915
< 1921 102
C 1922 -2535301200456458802993406410752
- 1923
+ 1905 1924
> 1925 1
+ 1905 1923
> 1927 1
+ 1928 1734
- 1734
+ 1928 1930
S 1931
C 1932 -1
> 1931 450
< 1933 100
+ 1934 1935
S 1936
- 1932
C 1938 1
< 1938 100
+ 1934 1940
S 1941
- 1942
+ 1937 1943
+ 1944 1939
< 1945 102
C 1946 -2535301200456458802993406410752
- 1947
+ 1929 1948
> 1949 1
+ 1929 1947
> 1951 1
+ 1952 1758
- 1758
+ 1952 1954
S 1955
C 1956 -1
> 1955 450
< 1957 100
+ 1958 1959
S 1960
- 1956
C 1962 1
< 1962 100
+ 1958 1964
S 1965
- 1966
+ 1961 1967
+ 1968 1963
< 1969 102
C 1970 -2535301200456458802993406410752
- 1971
+ 1953 1972
> 1973 1
+ 1953 1971
> 1975 1
+ 1976 1782
- 1782
+ 1976 1978
S 1979
C 1980 -1
> 1979 450
< 1981 100
+ 1982 1983
S 1984
- 1980
C 1986 1
< 1986 100
+ 1982 1988
S 1989
- 1990
+ 1985 1991
+ 1992 1987
< 1993 102
C 1994 -2535301200456458802993406410752
- 1995
+ 1977 1996
> 1997 1
+ 1977 1995
> 1999 1
+ 2000 1806
- 1806
+ 2000 2002
S 2003
C 2004 -1
> 2003 450
< 2005 100
+ 2006 2007
S 2008
- 2004
C 2010 1
< 2010 100
+ 2006 2012
S 2013
- 2014
+ 2009 2015
+ 2016 2011
< 2017 102
C 2018 -2535301200456458802993406410752
- 2019
+ 2001 2020
> 2021 1
+ 2001 2019
> 2023 1
+ 2024 1830
- 1830
+ 2024 2026
S 2027
C 2028 -1
> 2027 450
< 2029 100
+ 2030 2031
S 2032
- 2028
C 2034 1
< 2034 100
+ 2030 2036
S 2037
- 2038
+ 2033 2039
+ 2040 2035
< 2041 102
C 2042 -2535301200456458802993406410752
- 2043
+ 2025 2044
> 2045 1
+ 2025 2043
> 2047 1
+ 1854 1878
- 1878
+ 1854 2050
S 2051
C 2052 -1
> 2051 450
< 2053 100
+ 2054 2055
S 2056
- 2052
C 2058 1
< 2058 100
+ 2054 2060
S 2061
- 2062
+ 2057 2063
+ 2064 2059
< 2065 102
C 2066 -2535301200456458802993406410752
- 2067
+ 2049 2068
> 2069 1
+ 2049 2067
> 2071 1
+ 2072 1902
- 1902
+ 2072 2074
S 2075
C 2076 -1
> 2075 450
< 2077 100
+ 2078 2079
S 2080
- 2076
C 2082 1
< 2082 100
+ 2078 2084
S 2085
- 2086
+ 2081 2087
+ 2088 2083
< 2089 102
C 2090 -2535301200456458802993406410752
- 2091
+ 2073 2092
> 2093 1
+ 2073 2091
> 2095 1
+ 2096 1926
- 1926
+ 2096 2098
S 2099
C 2100 -1
> 2099 450
< 2101 100
+ 2102 2103
S 2104
- 2100
C 2106 1
< 2106 100
+ 2102 2108
S 2109
- 2110
+ 2105 2111
+ 2112 2107
< 2113 102
C 2114 -2535301200456458802993406410752
- 2115
+ 2097 2116
> 2117 1
+ 2097 2115
> 2119 1
+ 2120 1950
- 1950
+ 2120 2122
S 2123
C 2124 -1
> 2123 450
< 2125 100
+ 2126 2127
S 2128
- 2124
C 2130 1
< 2130 100
+ 2126 2132
S 2133
- 2134
+ 2129 2135
+ 2136 2131
< 2137 102
C 2138 -2535301200456458802993406410752
- 2139
+ 2121 2140
> 2141 1
+ 2121 2139
> 2143 1
+ 2144 1974
- 1974
+ 2144 2146
S 2147
C 2148 -1
> 2147 450
< 2149 100
+ 2150 2151
S 2152
- 2148
C 2154 1
< 2154 100
+ 2150 2156
S 2157
- 2158
+ 2153 2159
+ 2160 2155
< 2161 102
C 2162 -2535301200456458802993406410752
- 2163
+ 2145 2164
> 2165 1
+ 2145 2163
> 2167 1
+ 2168 1998
- 1998
+ 2168 2170
S 2171
C 2172 -1
> 2171 450
< 2173 100
+ 2174 2175
S 2176
- 2172
C 2178 1
< 2178 100
+ 2174 2180
S 2181
- 2182
+ 2177 2183
+ 2184 2179
< 2185 102
C 2186 -2535301200456458802993406410752
- 2187
+ 2169 2188
> 2189 1
+ 2169 2187
> 2191 1
+ 2192 2022
- 2022
+ 2192 2194
S 2195
C 2196 -1
> 2195 450
< 2197 100
+ 2198 2199
S 2200
- 2196
C 2202 1
< 2202 100
+ 2198 2204
S 2205
- 2206
+ 2201 2207
+ 2208 2203
< 2209 102
C 2210 -2535301200456458802993406410752
- 2211
+ 2193 2212
> 2213 1
+ 2193 2211
> 2215 1
+ 2216 2046
- 2046
+ 2216 2218
S 2219
C 2220 -1
> 2219 450
< 2221 100
+ 2222 2223
S 2224
- 2220
C 2226 1
< 2226 100
+ 2222 2228
S 2229
- 2230
+ 2225 2231
+ 2232 2227
< 2233 102
C 2234 -2535301200456458802993406410752
- 2235
+ 2217 2236
> 2237 1
+ 2217 2235
> 2239 1
+ 2070 2094
- 2094
+ 2070 2242
S 2243
C 2244 -1
> 2243 450
< 2245 100
+ 2246 2247
S 2248
- 2244
C 2250 1
< 2250 100
+ 2246 2252
S 2253
- 2254
+ 2249 2255
+ 2256 2251
< 2257 102
C 2258 -2535301200456458802993406410752
- 2259
+ 2241 2260
> 2261 1
+ 2241 2259
> 2263 1
+ 2264 2118
- 2118
+ 2264 2266
S 2267
C 2268 -1
> 2267 450
< 2269 100
+ 2270 2271
S 2272
- 2268
C 2274 1
< 2274 100
+ 2270 2276
S 2277
- 2278
+ 2273 2279
+ 2280 2275
< 2281 102
C 2282 -2535301200456458802993406410752
- 2283
+ 2265 2284
> 2285 1
+ 2265 2283
> 2287 1
+ 2288 2142
- 2142
+ 2288 2290
S 2291
C 2292 -1
> 2291 450
< 2293 100
+ 2294 2295
S 2296
- 2292
C 2298 1
< 2298 100
+ 2294 2300
S 2301
- 2302
+ 2297 2303
+ 2304 2299
< 2305 102
C 2306 -2535301200456458802993406410752
- 2307
+ 2289 2308
> 2309 1
+ 2289 2307
> 2311 1
+ 2312 2166
- 2166
+ 2312 2314
S 2315
C 2316 -1
> 2315 450
< 2317 100
+ 2318 2319
S 2320
- 2316
C 2322 1
< 2322 100
+ 2318 2324
S 2325
- 2326
+ 2321 2327
+ 2328 2323
< 2329 102
C 2330 -2535301200456458802993406410752
- 2331
+ 2313 2332
> 2333 1
+ 2313 2331
> 2335 1
+ 2336 2190
- 2190
+ 2336 2338
S 2339
C 2340 -1
> 2339 450
< 2341 100
+ 2342 2343
S 2344
- 2340
C 2346 1
< 2346 100
+ 2342 2348
S 2349
- 2350
+ 2345 2351
+ 2352 2347
< 2353 102
C 2354 -2535301200456458802993406410752
- 2355
+ 2337 2356
> 2357 1
+ 2337 2355
> 2359 1
+ 2360 2214
- 2214
+ 2360 2362
S 2363
C 2364 -1
> 2363 450
< 2365 100
+ 2366 2367
S 2368
- 2364
C 2370 1
< 2370 100
+ 2366 2372
S 2373
- 2374
+ 2369 2375
+ 2376 2371
< 2377 102
C 2378 -2535301200456458802993406410752
- 2379
+ 2361 2380
> 2381 1
+ 2361 2379
> 2383 1
+ 2384 2238
- 2238
+ 2384 2386
S 2387
C 2388 -1
> 2387 450
< 2389 100
+ 2390 2391
S 2392
- 2388
C 2394 1
< 2394 100
+ 2390 2396
S 2397
- 2398
+ 2393 2399
+ 2400 2395
< 2401 102
C 2402 -2535301200456458802993406410752
- 2403
+ 2385 2404
> 2405 1
+ 2385 2403
> 2407 1
+ 2262 2286
- 2286
+ 2262 2410
S 2411
C 2412 -1
> 2411 450
< 2413 100
+ 2414 2415
S 2416
- 2412
C 2418 1
< 2418 100
+ 2414 2420
S 2421
- 2422
+ 2417 2423
+ 2424 2419
< 2425 102
C 2426 -2535301200456458802993406410752
- 2427
+ 2409 2428
> 2429 1
+ 2409 2427
> 2431 1
+ 2432 2310
- 2310
+ 2432 2434
S 2435
C 2436 -1
> 2435 450
< 2437 100
+ 2438 2439
S 2440
- 2436
C 2442 1
< 2442 100
+ 2438 2444
S 2445
- 2446
+ 2441 2447
+ 2448 2443
< 2449 102
C 2450 -2535301200456458802993406410752
- 2451
+ 2433 2452
> 2453 1
+ 2433 2451
> 2455 1
+ 2456 2334
- 2334
+ 2456 2458
S 2459
C 2460 -1
> 2459 450
< 2461 100
+ 2462 2463
S 2464
- 2460
C 2466 1
< 2466 100
+ 2462 2468
S 2469
- 2470
+ 2465 2471
+ 2472 2467
< 2473 102
C 2474 -2535301200456458802993406410752
- 2475
+ 2457 2476
> 2477 1
+ 2457 2475
> 2479 1
+ 2480 2358
- 2358
+ 2480 2482
S 2483
C 2484 -1
> 2483 450
< 2485 100
+ 2486 2487
S 2488
- 2484
C 2490 1
< 2490 100
+ 2486 2492
S 2493
- 2494
+ 2489 2495
+ 2496 2491
< 2497 102
C 2498 -2535301200456458802993406410752
- 2499
+ 2481 2500
> 2501 1
+ 2481 2499
> 2503 1
+ 2504 2382
- 2382
+ 2504 2506
S 2507
C 2508 -1
> 2507 450
< 2509 100
+ 2510 2511
S 2512
- 2508
C 2514 1
< 2514 100
+ 2510 2516
S 2517
- 2518
+ 2513 2519
+ 2520 2515
< 2521 102
C 2522 -2535301200456458802993406410752
- 2523
+ 2505 2524
> 2525 1
+ 2505 2523
> 2527 1
+ 2528 2406
- 2406
+ 2528 2530
S 2531
C 2532 -1
> 2531 450
< 2533 100
+ 2534 2535
S 2536
- 2532
C 2538 1
< 2538 100
+ 2534 2540
S 2541
- 2542
+ 2537 2543
+ 2544 2539
< 2545 102
C 2546 -2535301200456458802993406410752
- 2547
+ 2529 2548
> 2549 1
+ 2529 2547
> 2551 1
+ 2430 2454
- 2454
+ 2430 2554
S 2555
C 2556 -1
> 2555 450
< 2557 100
+ 2558 2559
S 2560
- 2556
C 2562 1
< 2562 100
+ 2558 2564
S 2565
- 2566
+ 2561 2567
+ 2568 2563
< 2569 102
C 2570 -2535301200456458802993406410752
- 2571
+ 2553 2572
> 2573 1
+ 2553 2571
> 2575 1
+ 2576 2478
- 2478
+ 2576 2578
S 2579
C 2580 -1
> 2579 450
< 2581 100
+ 2582 2583
S 2584
- 2580
C 2586 1
< 2586 100
+ 2582 2588
S 2589
- 2590
+ 2585 2591
+ 2592 2587
< 2593 102
C 2594 -2535301200456458802993406410752
- 2595
+ 2577 2596
> 2597 1
+ 2577 2595
> 2599 1
+ 2600 2502
- 2502
+ 2600 2602
S 2603
C 2604 -1
> 2603 450
< 2605 100
+ 2606 2607
S 2608
- 2604
C 2610 1
< 2610 100
+ 2606 2612
S 2613
- 2614
+ 2609 2615
+ 2616 2611
< 2617 102
C 2618 -2535301200456458802993406410752
- 2619
+ 2601 2620
> 2621 1
+ 2601 2619
> 2623 1
+ 2624 2526
- 2526
+ 2624 2626
S 2627
C 2628 -1
> 2627 450
< 2629 100
+ 2630 2631
S 2632
- 2628
C 2634 1
< 2634 100
+ 2630 2636
S 2637
- 2638
+ 2633 2639
+ 2640 2635
< 2641 102
C 2642 -2535301200456458802993406410752
- 2643
+ 2625 2644
> 2645 1
+ 2625 2643
> 2647 1
+ 2648 2550
- 2550
+ 2648 2650
S 2651
C 2652 -1
> 2651 450
< 2653 100
+ 2654 2655
S 2656
- 2652
C 2658 1
< 2658 100
+ 2654 2660
S 2661
- 2662
+ 2657 2663
+ 2664 2659
< 2665 102
C 2666 -2535301200456458802993406410752
- 2667
+ 2649 2668
> 2669 1
+ 2649 2667
> 2671 1
+ 2574 2598
- 2598
+ 2574 2674
S 2675
C 2676 -1
> 2675 450
< 2677 100
+ 2678 2679
S 2680
- 2676
C 2682 1
< 2682 100
+ 2678 2684
S 2685
- 2686
+ 2681 2687
+ 2688 2683
< 2689 102
C 2690 -2535301200456458802993406410752
- 2691
+ 2673 2692
> 2693 1
+ 2673 2691
> 2695 1
+ 2696 2622
- 2622
+ 2696 2698
S 2699
C 2700 -1
> 2699 450
< 2701 100
+ 2702 2703
S 2704
- 2700
C 2706 1
< 2706 100
+ 2702 2708
S 2709
- 2710
+ 2705 2711
+ 2712 2707
< 2713 102
C 2714 -2535301200456458802993406410752
- 2715
+ 2697 2716
> 2717 1
+ 2697 2715
> 2719 1
+ 2720 2646
- 2646
+ 2720 2722
S 2723
C 2724 -1
> 2723 450
< 2725 100
+ 2726 2727
S 2728
- 2724
C 2730 1
< 2730 100
+ 2726 2732
S 2733
- 2734
+ 2729 2735
+ 2736 2731
< 2737 102
C 2738 -2535301200456458802993406410752
- 2739
+ 2721 2740
> 2741 1
+ 2721 2739
> 2743 1
+ 2744 2670
- 2670
+ 2744 2746
S 2747
C 2748 -1
> 2747 450
< 2749 100
+ 2750 2751
S 2752
- 2748
C 2754 1
< 2754 100
+ 2750 2756
S 2757
- 2758
+ 2753 2759
+ 2760 2755
< 2761 102
C 2762 -2535301200456458802993406410752
- 2763
+ 2745 2764
> 2765 1
+ 2745 2763
> 2767 1
+ 2694 2718
- 2718
+ 2694 2770
S 2771
C 2772 -1
> 2771 450
< 2773 100
+ 2774 2775
S 2776
- 2772
C 2778 1
< 2778 100
+ 2774 2780
S 2781
- 2782
+ 2777 2783
+ 2784 2779
< 2785 102
C 2786 -2535301200456458802993406410752
- 2787
+ 2769 2788
> 2789 1
+ 2769 2787
> 2791 1
+ 2792 2742
- 2742
+ 2792 2794
S 2795
C 2796 -1
> 2795 450
< 2797 100
+ 2798 2799
S 2800
- 2796
C 2802 1
< 2802 100
+ 2798 2804
S 2805
- 2806
+ 2801 2807
+ 2808 2803
< 2809 102
C 2810 -2535301200456458802993406410752
- 2811
+ 2793 2812
> 2813 1
+ 2793 2811
> 2815 1
+ 2816 2766
- 2766
+ 2816 2818
S 2819
C 2820 -1
> 2819 450
< 2821 100
+ 2822 2823
S 2824
- 2820
C 2826 1
< 2826 100
+ 2822 2828
S 2829
- 2830
+ 2825 2831
+ 2832 2827
< 2833 102
C 2834 -2535301200456458802993406410752
- 2835
+ 2817 2836
> 2837 1
+ 2817 2835
> 2839 1
+ 2790 2814
- 2814
+ 2790 2842
S 2843
C 2844 -1
> 2843 450
< 2845 100
+ 2846 2847
S 2848
- 2844
C 2850 1
< 2850 100
+ 2846 2852
S 2853
- 2854
+ 2849 2855
+ 2856 2851
< 2857 102
C 2858 -2535301200456458802993406410752
- 2859
+ 2841 2860
> 2861 1
+ 2841 2859
> 2863 1
+ 2864 2838
- 2838
+ 2864 2866
S 2867
C 2868 -1
> 2867 450
< 2869 100
+ 2870 2871
S 2872
- 2868
C 2874 1
< 2874 100
+ 2870 2876
S 2877
- 2878
+ 2873 2879
+ 2880 2875
< 2881 102
C 2882 -2535301200456458802993406410752
- 2883
+ 2865 2884
> 2885 1
+ 2865 2883
> 2887 1
+ 2862 2886
- 2886
+ 2862 2890
S 2891
C 2892 -1
> 2891 450
< 2893 100
+ 2894 2895
S 2896
- 2892
C 2898 1
< 2898 100
+ 2894 2900
S 2901
- 2902
+ 2897 2903
+ 2904 2899
< 2905 102
C 2906 -2535301200456458802993406410752
- 2907
+ 2889 2908
> 2909 1
+ 2889 2907
> 2911 1
> 2910 350
O 2913
> 2912 350
O 2915
> 2888 350
O 2917
> 2840 350
O 2919
> 2768 350
O 2921
> 2672 350
O 2923
> 2552 350
O 2925
> 2408 350
O 2927
> 2240 350
O 2929
> 2048 350
O 2931
> 1832 350
O 2933
> 1592 350
O 2935
> 1328 350
O 2937
> 1040 350
O 2939
> 728 350
O 2941
> 392 350
O 2943
