{
	"cnname" : "循环之美",
	"type" : "program",
	"time limit" : 1.0,
	"memory limit" : "512 MB",
	"test cases" : 25,
	"compile" : {
		"cpp" : "-O2 -lm",
		"c" : "-O2 -lm",
		"pas" : "-O2"
	},
	"sample count" : 2
}